/usr/src/pmfs-async-io/pmfs.ko
/usr/src/pmfs-async-io/bbuild.o /usr/src/pmfs-async-io/balloc.o /usr/src/pmfs-async-io/dir.o /usr/src/pmfs-async-io/file.o /usr/src/pmfs-async-io/inode.o /usr/src/pmfs-async-io/namei.o /usr/src/pmfs-async-io/super.o /usr/src/pmfs-async-io/symlink.o /usr/src/pmfs-async-io/ioctl.o /usr/src/pmfs-async-io/pmfs_stats.o /usr/src/pmfs-async-io/journal.o /usr/src/pmfs-async-io/xip.o /usr/src/pmfs-async-io/wprotect.o

